^C:\USERS\AKAAE\SOURCE\REPOS\17.5 ПРАКТИЧЕСКАЯ РАБОТА\DEBUG\17.5 ПРАКТИЧЕСКАЯ РАБОТА.OBJ
C:\USERS\AKAAE\SOURCE\REPOS\17.5 Практическая работа\DEBUG\17.5 Практическая работа.EXE
C:\USERS\AKAAE\SOURCE\REPOS\17.5 Практическая работа\DEBUG\17.5 Практическая работа.ILK
C:\USERS\AKAAE\SOURCE\REPOS\17.5 ПРАКТИЧЕСКАЯ РАБОТА\DEBUG\17.5 ПРАКТИЧЕСКАЯ РАБОТА.PDB
